{
  "project_info": {
    "project_number": "958539893010",
    "firebase_url": "https://stopit-preprod-2019.firebaseio.com",
    "project_id": "stopit-preprod-2019",
    "storage_bucket": "stopit-preprod-2019.appspot.com"
  },
  "client": [
    {
      "client_info": {
        "mobilesdk_app_id": "1:958539893010:android:fbedbcfb244fd10f",
        "android_client_info": {
          "package_name": "com.stopitsolutions.mobile2019"
        }
      },
      "oauth_client": [
        {
          "client_id": "958539893010-7fv5po9aueg8ll88flo033j22lc7uu7c.apps.googleusercontent.com",
          "client_type": 3
        }
      ],
      "api_key": [
        {
          "current_key": "AIzaSyAVd9ojpd2YMG4z4So3fQ-9AIHXcSR7UkY"
        }
      ],
      "services": {
        "analytics_service": {
          "status": 1
        },
        "appinvite_service": {
          "status": 1,
          "other_platform_oauth_client": []
        },
        "ads_service": {
          "status": 2
        }
      }
    }
  ],
  "configuration_version": "1"
}